{
  "service_name" : "GenericBalance",
  "service_description": "generice balance SiLA2 service",
  "authors"      : "mark doerr",
  "creation_date" : "20191104",
  "version" : "0.0.1",
  "vendor_url" : "lara.uni-greifswald.de",
  "SiLA_standard_feature_list" : ["SiLAService"],
  "SiLA_feature_list" : ["CancelController", "PauseController","CoverController"],
  "communication_port" : "50051",
  "IP_address" : "127.0.0.1",
  "hostname" : "localhost"
}
