{
  "service_name" : "AllDataTypesDemo",
  "service_description": "This demo shows the usage of all basic datatypes",
  "authors"      : "mark doerr (mark.doerr@uni-greifswald.de), Sfefan Koch (equicon.de)",
  "creation_date" : "20190105",
  "version" : "0.1.0",
  "vendor_url" : "lara.uni-greifswald.de",
  "SiLA_standard_feature_list" : ["SiLAService"],
  "SiLA_feature_list" : ["GreetingProvider", "DataTypeProvider"],
  "communication_port" : "55001",
  "IP_address" : "127.0.0.1",
  "hostname" : "localhost"
}
